EESchema Schematic File Version 5
LIBS:polarscope_modular-cache
EELAYER 29 0
EELAYER END
$Descr A4 11693 8268
encoding utf-8
Sheet 1 1
Title ""
Date ""
Rev ""
Comp ""
Comment1 ""
Comment2 ""
Comment3 ""
Comment4 ""
$EndDescr
$Comp
L Connector:Conn_01x04_Female J2
U 1 1 5D50B5C5
P 3825 4325
F 0 "J2" V 3763 4037 50  0000 R CNN
F 1 "quadVCO_signal" V 3925 4550 50  0000 R CNN
F 2 "Connector_Harwin:Harwin_M20-89004xx_1x04_P2.54mm_Horizontal" H 3825 4325 50  0001 C CNN
F 3 "~" H 3825 4325 50  0001 C CNN
	1    3825 4325
	0    -1   -1   0   
$EndComp
$Comp
L Connector:Conn_01x04_Female J4
U 1 1 5D50C098
P 4625 4325
F 0 "J4" V 4563 4472 50  0000 L CNN
F 1 "quadVCO_supply" V 4725 4000 50  0000 L CNN
F 2 "Connector_Harwin:Harwin_M20-89004xx_1x04_P2.54mm_Horizontal" H 4625 4325 50  0001 C CNN
F 3 "~" H 4625 4325 50  0001 C CNN
	1    4625 4325
	0    -1   -1   0   
$EndComp
$Comp
L Connector:Conn_01x04_Female J8
U 1 1 5D50E3E8
P 6675 4325
F 0 "J8" V 6613 4472 50  0000 L CNN
F 1 "mult_supply" V 6775 4100 50  0000 L CNN
F 2 "Connector_Harwin:Harwin_M20-89004xx_1x04_P2.54mm_Horizontal" H 6675 4325 50  0001 C CNN
F 3 "~" H 6675 4325 50  0001 C CNN
	1    6675 4325
	0    -1   -1   0   
$EndComp
$Comp
L Connector:Conn_01x04_Female J6
U 1 1 5D50EE2C
P 6100 4325
F 0 "J6" V 6038 4472 50  0000 L CNN
F 1 "mult_input" V 6200 4125 50  0000 L CNN
F 2 "Connector_Harwin:Harwin_M20-89004xx_1x04_P2.54mm_Horizontal" H 6100 4325 50  0001 C CNN
F 3 "~" H 6100 4325 50  0001 C CNN
	1    6100 4325
	0    -1   -1   0   
$EndComp
$Comp
L Connector:Conn_01x04_Female J10
U 1 1 5D512295
P 8100 4325
F 0 "J10" V 8038 4472 50  0000 L CNN
F 1 "mult_supply" V 8200 4100 50  0000 L CNN
F 2 "Connector_Harwin:Harwin_M20-89004xx_1x04_P2.54mm_Horizontal" H 8100 4325 50  0001 C CNN
F 3 "~" H 8100 4325 50  0001 C CNN
	1    8100 4325
	0    -1   -1   0   
$EndComp
$Comp
L Connector:Conn_01x04_Female J9
U 1 1 5D5122A3
P 7525 4325
F 0 "J9" V 7463 4472 50  0000 L CNN
F 1 "mult_input" V 7625 4125 50  0000 L CNN
F 2 "Connector_Harwin:Harwin_M20-89004xx_1x04_P2.54mm_Horizontal" H 7525 4325 50  0001 C CNN
F 3 "~" H 7525 4325 50  0001 C CNN
	1    7525 4325
	0    -1   -1   0   
$EndComp
$Comp
L power:GND #PWR06
U 1 1 5D514F8A
P 4625 4525
F 0 "#PWR06" H 4625 4275 50  0001 C CNN
F 1 "GND" H 4630 4352 50  0000 C CNN
F 2 "" H 4625 4525 50  0001 C CNN
F 3 "" H 4625 4525 50  0001 C CNN
	1    4625 4525
	1    0    0    -1  
$EndComp
$Comp
L Device:R_POT_TRIM RV1
U 1 1 5D51650F
P 3200 4750
F 0 "RV1" H 3131 4796 50  0000 R CNN
F 1 "FM sensitivity 500k" H 3131 4705 50  0000 R CNN
F 2 "Potentiometer_THT:Potentiometer_Piher_PT-10-V10_Vertical_Hole" H 3200 4750 50  0001 C CNN
F 3 "~" H 3200 4750 50  0001 C CNN
	1    3200 4750
	1    0    0    -1  
$EndComp
Wire Wire Line
	4725 4525 4725 4950
Wire Wire Line
	3200 4950 3200 4900
$Comp
L Device:C C3
U 1 1 5D518FF6
P 3725 4675
F 0 "C3" H 3500 4725 50  0000 L CNN
F 1 "10n" H 3500 4634 50  0000 L CNN
F 2 "Capacitor_SMD:C_1206_3216Metric_Pad1.42x1.75mm_HandSolder" H 3763 4525 50  0001 C CNN
F 3 "~" H 3725 4675 50  0001 C CNN
	1    3725 4675
	1    0    0    -1  
$EndComp
Wire Wire Line
	3200 4950 3400 4950
Wire Wire Line
	3350 4750 3400 4750
Wire Wire Line
	3400 4750 3400 4950
Connection ~ 3400 4950
Wire Wire Line
	3400 4950 4725 4950
$Comp
L Device:C C4
U 1 1 5D5199FA
P 3925 4675
F 0 "C4" H 4040 4721 50  0000 L CNN
F 1 "10n" H 4040 4630 50  0000 L CNN
F 2 "Capacitor_SMD:C_1206_3216Metric_Pad1.42x1.75mm_HandSolder" H 3963 4525 50  0001 C CNN
F 3 "~" H 3925 4675 50  0001 C CNN
	1    3925 4675
	1    0    0    -1  
$EndComp
Wire Wire Line
	3725 4825 3725 4875
Wire Wire Line
	3925 4825 3925 4875
Wire Wire Line
	3925 4875 4025 4875
Wire Wire Line
	4025 4875 4025 4525
Wire Wire Line
	4025 5025 4025 4875
Connection ~ 4025 4875
Text GLabel 4025 5025 3    50   Input ~ 0
sin
Text GLabel 3825 5025 3    50   Input ~ 0
cos
Wire Wire Line
	3825 4875 3825 4525
Wire Wire Line
	3825 4875 3825 5025
Connection ~ 3825 4875
Wire Wire Line
	3725 4875 3825 4875
$Comp
L power:+15V #PWR010
U 1 1 5D51A1E2
P 4825 4525
F 0 "#PWR010" H 4825 4375 50  0001 C CNN
F 1 "+15V" H 4840 4698 50  0000 C CNN
F 2 "" H 4825 4525 50  0001 C CNN
F 3 "" H 4825 4525 50  0001 C CNN
	1    4825 4525
	-1   0    0    1   
$EndComp
$Comp
L power:+15V #PWR018
U 1 1 5D51A2B7
P 6875 4525
F 0 "#PWR018" H 6875 4375 50  0001 C CNN
F 1 "+15V" H 6890 4698 50  0000 C CNN
F 2 "" H 6875 4525 50  0001 C CNN
F 3 "" H 6875 4525 50  0001 C CNN
	1    6875 4525
	-1   0    0    1   
$EndComp
$Comp
L power:+15V #PWR021
U 1 1 5D51A38C
P 8300 4525
F 0 "#PWR021" H 8300 4375 50  0001 C CNN
F 1 "+15V" H 8315 4698 50  0000 C CNN
F 2 "" H 8300 4525 50  0001 C CNN
F 3 "" H 8300 4525 50  0001 C CNN
	1    8300 4525
	-1   0    0    1   
$EndComp
$Comp
L power:-15V #PWR020
U 1 1 5D51A43C
P 8000 4525
F 0 "#PWR020" H 8000 4625 50  0001 C CNN
F 1 "-15V" H 8015 4698 50  0000 C CNN
F 2 "" H 8000 4525 50  0001 C CNN
F 3 "" H 8000 4525 50  0001 C CNN
	1    8000 4525
	-1   0    0    1   
$EndComp
$Comp
L power:-15V #PWR017
U 1 1 5D51A721
P 6575 4525
F 0 "#PWR017" H 6575 4625 50  0001 C CNN
F 1 "-15V" H 6590 4698 50  0000 C CNN
F 2 "" H 6575 4525 50  0001 C CNN
F 3 "" H 6575 4525 50  0001 C CNN
	1    6575 4525
	-1   0    0    1   
$EndComp
$Comp
L power:-15V #PWR05
U 1 1 5D51AA5A
P 4525 4525
F 0 "#PWR05" H 4525 4625 50  0001 C CNN
F 1 "-15V" H 4540 4698 50  0000 C CNN
F 2 "" H 4525 4525 50  0001 C CNN
F 3 "" H 4525 4525 50  0001 C CNN
	1    4525 4525
	-1   0    0    1   
$EndComp
Wire Wire Line
	7425 4525 7425 4750
Wire Wire Line
	7425 4750 6000 4750
Wire Wire Line
	6000 4750 6000 4525
Wire Wire Line
	6100 4525 6100 4825
Wire Wire Line
	6100 4825 7525 4825
Wire Wire Line
	7525 4825 7525 4525
$Comp
L power:GND #PWR016
U 1 1 5D51B131
P 6200 4525
F 0 "#PWR016" H 6200 4275 50  0001 C CNN
F 1 "GND" H 6205 4352 50  0000 C CNN
F 2 "" H 6200 4525 50  0001 C CNN
F 3 "" H 6200 4525 50  0001 C CNN
	1    6200 4525
	1    0    0    -1  
$EndComp
Wire Wire Line
	6300 4525 6300 4900
Text GLabel 6300 4900 3    50   Input ~ 0
cos
$Comp
L Device:R R5
U 1 1 5D51B849
P 7625 5200
F 0 "R5" H 7475 5250 50  0000 L CNN
F 1 "1k" V 7625 5150 50  0000 L CNN
F 2 "Resistor_SMD:R_0805_2012Metric_Pad1.15x1.40mm_HandSolder" V 7555 5200 50  0001 C CNN
F 3 "~" H 7625 5200 50  0001 C CNN
	1    7625 5200
	1    0    0    -1  
$EndComp
$Comp
L Device:R R6
U 1 1 5D51BA94
P 7725 5200
F 0 "R6" H 7795 5246 50  0000 L CNN
F 1 "1k" V 7725 5150 50  0000 L CNN
F 2 "Resistor_SMD:R_0805_2012Metric_Pad1.15x1.40mm_HandSolder" V 7655 5200 50  0001 C CNN
F 3 "~" H 7725 5200 50  0001 C CNN
	1    7725 5200
	1    0    0    -1  
$EndComp
Wire Wire Line
	7625 5350 7625 5425
Wire Wire Line
	7625 5425 7725 5425
Wire Wire Line
	7725 5425 7725 5350
Connection ~ 7725 5425
Wire Wire Line
	7725 5425 7725 5525
Text GLabel 7725 5525 3    50   Input ~ 0
sin
$Comp
L Jumper:SolderJumper_3_Bridged12 JP1
U 1 1 5D51C806
P 7375 5000
F 0 "JP1" H 7375 5217 50  0000 C CNN
F 1 "CW/~CCW" H 7375 5119 50  0000 C CNN
F 2 "Jumper:SolderJumper-3_P1.3mm_Bridged2Bar12_RoundedPad1.0x1.5mm" H 7375 5000 50  0001 C CNN
F 3 "~" H 7375 5000 50  0001 C CNN
	1    7375 5000
	-1   0    0    -1  
$EndComp
$Comp
L power:GND #PWR019
U 1 1 5D51F161
P 7375 5150
F 0 "#PWR019" H 7375 4900 50  0001 C CNN
F 1 "GND" H 7380 4977 50  0000 C CNN
F 2 "" H 7375 5150 50  0001 C CNN
F 3 "" H 7375 5150 50  0001 C CNN
	1    7375 5150
	-1   0    0    -1  
$EndComp
$Comp
L Device:R R1
U 1 1 5D520799
P 3225 1950
F 0 "R1" H 3295 1996 50  0000 L CNN
F 1 "4k7" H 3295 1905 50  0000 L CNN
F 2 "Resistor_SMD:R_0805_2012Metric_Pad1.15x1.40mm_HandSolder" V 3155 1950 50  0001 C CNN
F 3 "~" H 3225 1950 50  0001 C CNN
	1    3225 1950
	1    0    0    -1  
$EndComp
$Comp
L Device:R R2
U 1 1 5D520F5B
P 3225 3150
F 0 "R2" H 3295 3196 50  0000 L CNN
F 1 "4k7" H 3295 3105 50  0000 L CNN
F 2 "Resistor_SMD:R_0805_2012Metric_Pad1.15x1.40mm_HandSolder" V 3155 3150 50  0001 C CNN
F 3 "~" H 3225 3150 50  0001 C CNN
	1    3225 3150
	1    0    0    -1  
$EndComp
$Comp
L Diode:LL4148 D1
U 1 1 5D521483
P 3225 2350
F 0 "D1" V 3275 2700 50  0000 R CNN
F 1 "LL4148" V 3184 2700 50  0000 R CNN
F 2 "Diode_SMD:D_MiniMELF" H 3225 2175 50  0001 C CNN
F 3 "http://www.vishay.com/docs/85557/ll4148.pdf" H 3225 2350 50  0001 C CNN
	1    3225 2350
	0    -1   -1   0   
$EndComp
Wire Wire Line
	3225 2500 3225 2550
$Comp
L power:GND #PWR02
U 1 1 5D5223F2
P 3175 2550
F 0 "#PWR02" H 3175 2300 50  0001 C CNN
F 1 "GND" V 3180 2422 50  0000 R CNN
F 2 "" H 3175 2550 50  0001 C CNN
F 3 "" H 3175 2550 50  0001 C CNN
	1    3175 2550
	0    1    1    0   
$EndComp
Wire Wire Line
	3175 2550 3225 2550
Connection ~ 3225 2550
Wire Wire Line
	3225 2550 3225 2600
Wire Wire Line
	3225 3000 3225 2950
$Comp
L power:-15V #PWR04
U 1 1 5D522849
P 3225 3300
F 0 "#PWR04" H 3225 3400 50  0001 C CNN
F 1 "-15V" H 3240 3473 50  0000 C CNN
F 2 "" H 3225 3300 50  0001 C CNN
F 3 "" H 3225 3300 50  0001 C CNN
	1    3225 3300
	-1   0    0    1   
$EndComp
Wire Wire Line
	3225 2100 3225 2150
$Comp
L power:+15V #PWR03
U 1 1 5D522D5E
P 3225 1800
F 0 "#PWR03" H 3225 1650 50  0001 C CNN
F 1 "+15V" H 3240 1973 50  0000 C CNN
F 2 "" H 3225 1800 50  0001 C CNN
F 3 "" H 3225 1800 50  0001 C CNN
	1    3225 1800
	1    0    0    -1  
$EndComp
$Comp
L Device:CP C1
U 1 1 5D523219
P 3400 2350
F 0 "C1" H 3518 2396 50  0000 L CNN
F 1 "10u" H 3518 2305 50  0000 L CNN
F 2 "Capacitor_SMD:CP_Elec_5x5.8" H 3438 2200 50  0001 C CNN
F 3 "~" H 3400 2350 50  0001 C CNN
	1    3400 2350
	1    0    0    -1  
$EndComp
$Comp
L Device:CP C2
U 1 1 5D523BA4
P 3400 2750
F 0 "C2" H 3518 2796 50  0000 L CNN
F 1 "10u" H 3518 2705 50  0000 L CNN
F 2 "Capacitor_SMD:CP_Elec_5x5.8" H 3438 2600 50  0001 C CNN
F 3 "~" H 3400 2750 50  0001 C CNN
	1    3400 2750
	1    0    0    -1  
$EndComp
$Comp
L Diode:LL4148 D2
U 1 1 5D521DCD
P 3225 2750
F 0 "D2" V 3275 2400 50  0000 L CNN
F 1 "LL4148" V 3184 2400 50  0000 L CNN
F 2 "Diode_SMD:D_MiniMELF" H 3225 2575 50  0001 C CNN
F 3 "http://www.vishay.com/docs/85557/ll4148.pdf" H 3225 2750 50  0001 C CNN
	1    3225 2750
	0    1    -1   0   
$EndComp
Wire Wire Line
	3225 2950 3400 2950
Connection ~ 3225 2950
Wire Wire Line
	3225 2950 3225 2900
Wire Wire Line
	3400 2900 3400 2950
Connection ~ 3400 2950
Wire Wire Line
	3400 2950 3550 2950
Wire Wire Line
	3400 2600 3400 2550
Connection ~ 3400 2550
Wire Wire Line
	3400 2550 3400 2500
Wire Wire Line
	3225 2550 3400 2550
Wire Wire Line
	3400 2200 3400 2150
Wire Wire Line
	3400 2150 3225 2150
Connection ~ 3225 2150
Wire Wire Line
	3225 2150 3225 2200
Wire Wire Line
	3400 2150 3550 2150
Connection ~ 3400 2150
Text GLabel 3550 2150 2    50   Input ~ 0
+ref
Text GLabel 3550 2950 2    50   Input ~ 0
-ref
Connection ~ 6000 4750
$Comp
L Device:R_POT RV2
U 1 1 5D526453
P 5400 3400
F 0 "RV2" H 5330 3446 50  0000 R CNN
F 1 "sensitivity" H 5330 3355 50  0000 R CNN
F 2 "Connector_Molex:Molex_KK-254_AE-6410-03A_1x03_P2.54mm_Vertical" H 5400 3400 50  0001 C CNN
F 3 "~" H 5400 3400 50  0001 C CNN
	1    5400 3400
	1    0    0    -1  
$EndComp
$Comp
L Device:CP C5
U 1 1 5D526ED9
P 5400 2900
F 0 "C5" H 5150 2950 50  0000 L CNN
F 1 "47u" H 5150 2859 50  0000 L CNN
F 2 "Capacitor_SMD:CP_Elec_6.3x5.4" H 5438 2750 50  0001 C CNN
F 3 "~" H 5400 2900 50  0001 C CNN
	1    5400 2900
	1    0    0    -1  
$EndComp
$Comp
L Device:CP C6
U 1 1 5D52840B
P 5600 2900
F 0 "C6" H 5718 2946 50  0000 L CNN
F 1 "47u" H 5718 2855 50  0000 L CNN
F 2 "Capacitor_SMD:CP_Elec_6.3x5.4" H 5638 2750 50  0001 C CNN
F 3 "~" H 5600 2900 50  0001 C CNN
	1    5600 2900
	1    0    0    -1  
$EndComp
Wire Wire Line
	5400 3050 5400 3200
Wire Wire Line
	5400 3200 5600 3200
Wire Wire Line
	5600 3200 5600 3050
Connection ~ 5400 3200
Wire Wire Line
	5400 3200 5400 3250
$Comp
L Device:R R3
U 1 1 5D5291C6
P 5400 2500
F 0 "R3" H 5200 2550 50  0000 L CNN
F 1 "330" H 5200 2459 50  0000 L CNN
F 2 "Resistor_SMD:R_0805_2012Metric_Pad1.15x1.40mm_HandSolder" V 5330 2500 50  0001 C CNN
F 3 "~" H 5400 2500 50  0001 C CNN
	1    5400 2500
	1    0    0    -1  
$EndComp
$Comp
L Device:R R4
U 1 1 5D529ABF
P 5600 2500
F 0 "R4" H 5675 2550 50  0000 L CNN
F 1 "330" H 5675 2459 50  0000 L CNN
F 2 "Resistor_SMD:R_0805_2012Metric_Pad1.15x1.40mm_HandSolder" V 5530 2500 50  0001 C CNN
F 3 "~" H 5600 2500 50  0001 C CNN
	1    5600 2500
	1    0    0    -1  
$EndComp
$Comp
L Connector:AudioJack3 J5
U 1 1 5D52B240
P 4775 2250
F 0 "J5" H 4757 2575 50  0000 C CNN
F 1 "AudioJack3" H 4757 2484 50  0000 C CNN
F 2 "Connector_Audio:Jack_3.5mm_CUI_SJ-3523-SMT_Horizontal" H 4775 2250 50  0001 C CNN
F 3 "~" H 4775 2250 50  0001 C CNN
	1    4775 2250
	1    0    0    -1  
$EndComp
Wire Wire Line
	4975 2250 5400 2250
Wire Wire Line
	5400 2250 5400 2350
Wire Wire Line
	5600 2150 4975 2150
Wire Wire Line
	5600 2150 5600 2350
$Comp
L power:GND #PWR012
U 1 1 5D52B9FB
P 5400 3550
F 0 "#PWR012" H 5400 3300 50  0001 C CNN
F 1 "GND" H 5405 3377 50  0000 C CNN
F 2 "" H 5400 3550 50  0001 C CNN
F 3 "" H 5400 3550 50  0001 C CNN
	1    5400 3550
	1    0    0    -1  
$EndComp
$Comp
L power:GND #PWR011
U 1 1 5D52C064
P 5075 2450
F 0 "#PWR011" H 5075 2200 50  0001 C CNN
F 1 "GND" H 5080 2277 50  0000 C CNN
F 2 "" H 5075 2450 50  0001 C CNN
F 3 "" H 5075 2450 50  0001 C CNN
	1    5075 2450
	1    0    0    -1  
$EndComp
Wire Wire Line
	5075 2450 5075 2350
Wire Wire Line
	5075 2350 4975 2350
$Comp
L Switch:SW_Push SW1
U 1 1 5D52F2AB
P 6000 5075
F 0 "SW1" V 5825 5675 50  0000 R CNN
F 1 "offset disable" V 5734 5675 50  0000 R CNN
F 2 "Connector_Molex:Molex_KK-254_AE-6410-02A_1x02_P2.54mm_Vertical" H 6000 5275 50  0001 C CNN
F 3 "~" H 6000 5275 50  0001 C CNN
	1    6000 5075
	0    -1   -1   0   
$EndComp
$Comp
L power:GND #PWR015
U 1 1 5D53075D
P 6000 5275
F 0 "#PWR015" H 6000 5025 50  0001 C CNN
F 1 "GND" H 6005 5102 50  0000 C CNN
F 2 "" H 6000 5275 50  0001 C CNN
F 3 "" H 6000 5275 50  0001 C CNN
	1    6000 5275
	1    0    0    -1  
$EndComp
Wire Wire Line
	6000 4875 6000 4750
Text GLabel 5425 4600 1    50   Input ~ 0
+ref
$Comp
L Device:R_POT_TRIM RV3
U 1 1 5D5256BD
P 5425 4750
F 0 "RV3" H 5355 4796 50  0000 R CNN
F 1 "Radius_Offset" H 5355 4705 50  0000 R CNN
F 2 "Potentiometer_THT:Potentiometer_Piher_PT-10-V10_Vertical_Hole" H 5425 4750 50  0001 C CNN
F 3 "~" H 5425 4750 50  0001 C CNN
	1    5425 4750
	1    0    0    -1  
$EndComp
$Comp
L power:GND #PWR013
U 1 1 5D525E7C
P 5425 4900
F 0 "#PWR013" H 5425 4650 50  0001 C CNN
F 1 "GND" H 5430 4727 50  0000 C CNN
F 2 "" H 5425 4900 50  0001 C CNN
F 3 "" H 5425 4900 50  0001 C CNN
	1    5425 4900
	1    0    0    -1  
$EndComp
Text GLabel 6100 4900 3    50   Input ~ 0
radius
Text GLabel 5550 3400 2    50   Input ~ 0
radius
$Comp
L Connector:Conn_01x02_Female J1
U 1 1 5D5319AC
P 2725 4300
F 0 "J1" H 2617 4485 50  0000 C CNN
F 1 "Conn_01x02_Female" H 2617 4394 50  0000 C CNN
F 2 "Connector_Molex:Molex_KK-254_AE-6410-02A_1x02_P2.54mm_Vertical" H 2725 4300 50  0001 C CNN
F 3 "~" H 2725 4300 50  0001 C CNN
	1    2725 4300
	-1   0    0    -1  
$EndComp
$Comp
L power:GND #PWR01
U 1 1 5D532944
P 2975 4450
F 0 "#PWR01" H 2975 4200 50  0001 C CNN
F 1 "GND" H 2980 4277 50  0000 C CNN
F 2 "" H 2975 4450 50  0001 C CNN
F 3 "" H 2975 4450 50  0001 C CNN
	1    2975 4450
	1    0    0    -1  
$EndComp
Wire Wire Line
	2925 4400 2975 4400
Wire Wire Line
	2975 4400 2975 4450
Wire Wire Line
	2925 4300 3200 4300
Wire Wire Line
	3200 4300 3200 4600
$Comp
L Device:R_POT_TRIM RV4
U 1 1 5D5335A0
P 6525 5600
F 0 "RV4" H 6455 5646 50  0000 R CNN
F 1 "cos_out offset 1k" H 6455 5555 50  0000 R CNN
F 2 "Potentiometer_THT:Potentiometer_Piher_PT-10-V10_Vertical_Hole" H 6525 5600 50  0001 C CNN
F 3 "~" H 6525 5600 50  0001 C CNN
	1    6525 5600
	1    0    0    -1  
$EndComp
Text GLabel 6475 5400 0    50   Input ~ 0
+ref
Text GLabel 6475 5800 0    50   Input ~ 0
-ref
$Comp
L Device:R_POT_TRIM RV5
U 1 1 5D534319
P 6775 5350
F 0 "RV5" H 6705 5396 50  0000 R CNN
F 1 "cos_out scale 25k" H 6705 5305 50  0000 R CNN
F 2 "Potentiometer_THT:Potentiometer_Piher_PT-10-V10_Vertical_Hole" H 6775 5350 50  0001 C CNN
F 3 "~" H 6775 5350 50  0001 C CNN
	1    6775 5350
	-1   0    0    -1  
$EndComp
Wire Wire Line
	6675 5600 6775 5600
Wire Wire Line
	6775 5600 6775 5500
Wire Wire Line
	6525 5750 6525 5800
Wire Wire Line
	6525 5800 6475 5800
Wire Wire Line
	6525 5450 6525 5400
Wire Wire Line
	6525 5400 6475 5400
$Comp
L Device:R_POT_TRIM RV7
U 1 1 5D534FD9
P 8425 5600
F 0 "RV7" H 8356 5646 50  0000 R CNN
F 1 "sin_out offset 1k" H 8356 5555 50  0000 R CNN
F 2 "Potentiometer_THT:Potentiometer_Piher_PT-10-V10_Vertical_Hole" H 8425 5600 50  0001 C CNN
F 3 "~" H 8425 5600 50  0001 C CNN
	1    8425 5600
	-1   0    0    1   
$EndComp
Wire Wire Line
	8200 5600 8200 5500
Wire Wire Line
	8275 5600 8200 5600
Wire Wire Line
	8425 5400 8475 5400
Wire Wire Line
	8425 5750 8425 5800
Wire Wire Line
	8425 5450 8425 5400
Text GLabel 8475 5400 2    50   Input ~ 0
-ref
Wire Wire Line
	8425 5800 8475 5800
$Comp
L Device:R_POT_TRIM RV6
U 1 1 5D534FED
P 8200 5350
F 0 "RV6" H 8130 5396 50  0000 R CNN
F 1 "sin_out scale 25k" H 7950 5400 50  0000 R CNN
F 2 "Potentiometer_THT:Potentiometer_Piher_PT-10-V10_Vertical_Hole" H 8200 5350 50  0001 C CNN
F 3 "~" H 8200 5350 50  0001 C CNN
	1    8200 5350
	-1   0    0    -1  
$EndComp
Text GLabel 8475 5800 2    50   Input ~ 0
+ref
Wire Wire Line
	7725 4525 7725 4900
Wire Wire Line
	7625 4525 7625 5000
Wire Wire Line
	7575 5000 7625 5000
Connection ~ 7625 5000
Wire Wire Line
	7625 5000 7625 5050
Wire Wire Line
	7725 4900 7125 4900
Wire Wire Line
	7125 4900 7125 5000
Wire Wire Line
	7125 5000 7175 5000
Connection ~ 7725 4900
Wire Wire Line
	7725 4900 7725 5050
Wire Wire Line
	6775 4525 6775 5200
Wire Wire Line
	6575 5350 6575 5150
Wire Wire Line
	6575 5150 6675 5150
Wire Wire Line
	6675 5150 6675 4525
Wire Wire Line
	6575 5350 6625 5350
Wire Wire Line
	8200 5200 8200 4525
$Comp
L Connector:Conn_01x03_Male J7
U 1 1 5D540263
P 6225 2250
F 0 "J7" H 6197 2274 50  0000 R CNN
F 1 "input" H 6197 2183 50  0000 R CNN
F 2 "Connector_Molex:Molex_KK-254_AE-6410-03A_1x03_P2.54mm_Vertical" H 6225 2250 50  0001 C CNN
F 3 "~" H 6225 2250 50  0001 C CNN
	1    6225 2250
	-1   0    0    -1  
$EndComp
$Comp
L power:GND #PWR014
U 1 1 5D5409B6
P 5925 2450
F 0 "#PWR014" H 5925 2200 50  0001 C CNN
F 1 "GND" H 5930 2277 50  0000 C CNN
F 2 "" H 5925 2450 50  0001 C CNN
F 3 "" H 5925 2450 50  0001 C CNN
	1    5925 2450
	1    0    0    -1  
$EndComp
Wire Wire Line
	6025 2350 5925 2350
Wire Wire Line
	5925 2350 5925 2450
Wire Wire Line
	6025 2250 5400 2250
Connection ~ 5400 2250
Wire Wire Line
	5600 2150 6025 2150
Connection ~ 5600 2150
$Comp
L Connector:Conn_01x03_Male J3
U 1 1 5D540E8A
P 4450 3175
F 0 "J3" H 4550 3500 50  0000 C CNN
F 1 "power" H 4550 3409 50  0000 C CNN
F 2 "Connector_Molex:Molex_KK-254_AE-6410-03A_1x03_P2.54mm_Vertical" H 4450 3175 50  0001 C CNN
F 3 "~" H 4450 3175 50  0001 C CNN
	1    4450 3175
	1    0    0    -1  
$EndComp
$Comp
L power:+15V #PWR08
U 1 1 5D542359
P 4750 2975
F 0 "#PWR08" H 4750 2825 50  0001 C CNN
F 1 "+15V" H 4765 3148 50  0000 C CNN
F 2 "" H 4750 2975 50  0001 C CNN
F 3 "" H 4750 2975 50  0001 C CNN
	1    4750 2975
	1    0    0    -1  
$EndComp
$Comp
L power:-15V #PWR09
U 1 1 5D5427DD
P 4750 3375
F 0 "#PWR09" H 4750 3475 50  0001 C CNN
F 1 "-15V" H 4765 3548 50  0000 C CNN
F 2 "" H 4750 3375 50  0001 C CNN
F 3 "" H 4750 3375 50  0001 C CNN
	1    4750 3375
	-1   0    0    1   
$EndComp
Wire Wire Line
	4750 3375 4750 3275
Wire Wire Line
	4750 3275 4650 3275
Wire Wire Line
	4650 3075 4750 3075
Wire Wire Line
	4750 3075 4750 2975
$Comp
L power:GND #PWR07
U 1 1 5D542CAB
P 4650 3175
F 0 "#PWR07" H 4650 2925 50  0001 C CNN
F 1 "GND" V 4655 3047 50  0000 R CNN
F 2 "" H 4650 3175 50  0001 C CNN
F 3 "" H 4650 3175 50  0001 C CNN
	1    4650 3175
	0    -1   -1   0   
$EndComp
$Comp
L Switch:SW_Push SW2
U 1 1 5D54887E
P 5900 2950
F 0 "SW2" V 5946 3098 50  0000 L CNN
F 1 "dc pass" V 5855 3098 50  0000 L CNN
F 2 "Connector_Molex:Molex_KK-254_AE-6410-02A_1x02_P2.54mm_Vertical" H 5900 3150 50  0001 C CNN
F 3 "~" H 5900 3150 50  0001 C CNN
	1    5900 2950
	0    1    -1   0   
$EndComp
Wire Wire Line
	5600 2750 5600 2700
Wire Wire Line
	5400 2750 5400 2650
Wire Wire Line
	5600 3200 5900 3200
Wire Wire Line
	5900 3200 5900 3150
Connection ~ 5600 3200
Wire Wire Line
	5900 2750 5900 2700
Wire Wire Line
	5900 2700 5600 2700
Connection ~ 5600 2700
Wire Wire Line
	5600 2700 5600 2650
Wire Wire Line
	8050 5350 8000 5350
Wire Wire Line
	8000 5350 8000 5150
Wire Wire Line
	8000 5150 8100 5150
Wire Wire Line
	8100 5150 8100 4525
$Comp
L Device:R R7
U 1 1 5D58D704
P 5725 4750
F 0 "R7" V 5932 4750 50  0000 C CNN
F 1 "1k" V 5841 4750 50  0000 C CNN
F 2 "Resistor_SMD:R_0805_2012Metric_Pad1.15x1.40mm_HandSolder" V 5655 4750 50  0001 C CNN
F 3 "~" H 5725 4750 50  0001 C CNN
	1    5725 4750
	0    1    -1   0   
$EndComp
Wire Wire Line
	5875 4750 6000 4750
Wire Wire Line
	6100 4825 6100 4900
Connection ~ 6100 4825
$EndSCHEMATC
